{
  "name": "barbican",
  "description": "Role for configuration of OpenStack Barbican Key Management component",
  "json_class": "Chef::Role",
  
  "default_attributes": {
	"barbican" : {
		"user" : "xlab",
		"auth" : {
			"keystone_ip" : "172.16.95.136"
		}
	}
  },
  
  "chef_type": "role",
  
  "run_list": [
	"recipe[barbican::default_modified]"
  ]
}